{
  "project_info": {
    "project_number": "655235351868",
    "firebase_url": "https://agenda-sync-8cbac.firebaseio.com",
    "project_id": "agenda-sync-8cbac",
    "storage_bucket": "agenda-sync-8cbac.appspot.com"
  },
  "client": [
    {
      "client_info": {
        "mobilesdk_app_id": "1:655235351868:android:3a5ad5bdb69d3b6a",
        "android_client_info": {
          "package_name": "br.com.alura.agenda"
        }
      },
      "oauth_client": [
        {
          "client_id": "655235351868-vsrtil0resugu7dq421gpd5b0892np9k.apps.googleusercontent.com",
          "client_type": 1,
          "android_info": {
            "package_name": "br.com.alura.agenda",
            "certificate_hash": "e5591cf5e4fb47df9565d803fd6b1bc1ad3f2869"
          }
        },
        {
          "client_id": "655235351868-r86pejlj9t6a4bjle2fterlb7l02dv78.apps.googleusercontent.com",
          "client_type": 3
        }
      ],
      "api_key": [
        {
          "current_key": "AIzaSyD5qQkX_Augj-hyotJ4A8loIMafccH5YEw"
        }
      ],
      "services": {
        "analytics_service": {
          "status": 1
        },
        "appinvite_service": {
          "status": 2,
          "other_platform_oauth_client": [
            {
              "client_id": "655235351868-r86pejlj9t6a4bjle2fterlb7l02dv78.apps.googleusercontent.com",
              "client_type": 3
            }
          ]
        },
        "ads_service": {
          "status": 2
        }
      }
    }
  ],
  "configuration_version": "1"
}